1.0514975513e-05	4.9235571078e+01
1.3237569878e-05	6.1449506080e+01
1.6665113110e-05	7.6693308673e+01
2.0980134385e-05	9.5718521102e+01
2.6412424320e-05	1.1946306168e+02
3.3251272163e-05	1.4909735481e+02
4.1860871500e-05	1.8608188255e+02
5.2699714892e-05	2.3223882016e+02
6.6345010272e-05	2.8984120909e+02
8.3523419377e-05	3.6172363261e+02
1.0514975513e-04	4.5141926929e+02
1.3237569878e-04	5.6332874270e+02
1.6665113110e-04	7.0292666241e+02
2.0980134385e-04	8.7701124862e+02
2.6412424320e-04	1.0940005094e+03
3.3251272163e-04	1.3642734713e+03
4.1860871500e-04	1.7005452483e+03
5.2699714892e-04	2.1182484751e+03
6.6345010272e-04	2.6358681464e+03
8.3523419377e-04	3.2751343365e+03
1.0514975513e-03	4.0608921984e+03
1.3237569878e-03	5.0203270514e+03
1.6665113110e-03	6.1810036488e+03
2.0980134385e-03	7.5680848176e+03
2.6412424320e-03	9.1993979630e+03
3.3251272163e-03	1.1079424697e+04
4.1860871500e-03	1.3191864371e+04
5.2699714892e-03	1.5490343131e+04
6.6345010272e-03	1.7885342896e+04
8.3523419377e-03	2.0224677503e+04
1.0514975513e-02	2.2279817922e+04
1.3237569878e-02	2.3744395161e+04
1.6665113110e-02	2.4258181838e+04
2.0980134210e-02	2.3461133269e+04
2.6412293110e-02	2.1200364757e+04
3.3233264743e-02	1.7819168238e+04
4.1266180662e-02	1.4464642261e+04
4.8028547936e-02	1.2548787494e+04
5.2934639182e-02	1.1603497234e+04
5.6982025926e-02	1.1011403573e+04
6.0596522900e-02	1.0563209439e+04
6.3968059933e-02	1.0171396955e+04
6.7197207939e-02	9.7919866930e+03
7.0344288550e-02	9.4015948004e+03
7.3448934014e-02	8.9889642120e+03
7.6539080837e-02	8.5513438771e+03
7.9635574864e-02	8.0922453593e+03
8.2754730759e-02	7.6199056104e+03
8.5909848867e-02	7.1456843986e+03
8.9112161591e-02	6.6825446430e+03
9.2371449104e-02	6.2434806229e+03
9.5696453998e-02	5.8400025658e+03
9.9095168601e-02	5.4810174968e+03
1.0257503881e-01	5.1717451285e+03
1.0614311144e-01	4.9132600185e+03
1.0980614238e-01	4.7022292037e+03
1.1357067682e-01	4.5310592148e+03
1.1744310923e-01	4.3884012423e+03
1.2142972838e-01	4.2601788898e+03
1.2553675117e-01	4.1312664870e+03
1.2977034805e-01	3.9878425171e+03
1.3413666224e-01	3.8200852237e+03
1.3864182421e-01	3.6245538257e+03
1.4329196312e-01	3.4053076487e+03
1.4809321603e-01	3.1732115320e+03
1.5305173634e-01	2.9433650103e+03
1.5817370209e-01	2.7313714122e+03
1.6346532534e-01	2.5494169146e+03
1.6893286330e-01	2.4032315127e+03
1.7458263227e-01	2.2906290483e+03
1.8042102516e-01	2.2019994314e+03
1.8645453350e-01	2.1233914144e+03
1.9268977475e-01	2.0392174633e+03
1.9913352582e-01	1.9381100480e+03
2.0579276362e-01	1.8187127934e+03
2.1267471365e-01	1.6891767148e+03
2.1978690740e-01	1.5629628946e+03
2.2713724986e-01	1.4525309592e+03
2.3473409819e-01	1.3640303709e+03
2.4258635298e-01	1.2950836411e+03
2.5070356400e-01	1.2362768350e+03
2.5909605234e-01	1.1760266052e+03
2.6777505193e-01	1.1070911976e+03
2.7675287371e-01	1.0308493237e+03
2.8604309711e-01	9.5566178306e+02
2.9566079448e-01	8.9017065091e+02
3.0562279620e-01	8.3692289441e+02
3.1594800629e-01	7.9126623713e+02
3.2665778151e-01	7.4588423478e+02
3.3777639144e-01	6.9706911659e+02
3.4933158244e-01	6.4733668379e+02
3.6135527700e-01	6.0194961281e+02
3.7388445100e-01	5.6299474956e+02
3.8696224823e-01	5.2754586076e+02
4.0063941518e-01	4.9192680685e+02
4.1497617484e-01	4.5615805141e+02
4.3004471221e-01	4.2275104635e+02
4.4593252756e-01	3.9259007787e+02
4.6274704664e-01	3.6400586156e+02
4.8062209292e-01	3.3569469659e+02
4.9972719160e-01	3.0872945160e+02
5.2028130807e-01	2.8366946040e+02
5.4257376827e-01	2.5928440439e+02
5.6699726957e-01	2.3567480244e+02
5.9410217535e-01	2.1308807213e+02
6.2469027440e-01	1.9093169440e+02
6.5998626343e-01	1.6924824353e+02
7.0197326156e-01	1.4765673112e+02
7.5410168437e-01	1.2588043477e+02
8.2290765371e-01	1.0344813304e+02
9.2183655868e-01	7.9931079366e+01
1.0783178084e+00	5.5715480310e+01
1.3273224387e+00	3.4265107163e+01
1.6682613746e+00	1.9880207197e+01
2.1001649620e+00	1.1386309294e+01
2.6439508487e+00	6.4676874974e+00
3.3285369109e+00	3.6465208866e+00
4.1903797012e+00	2.0420845408e+00
5.2753754909e+00	1.1365415229e+00
6.6413042623e+00	6.2900579801e-01
8.3609067032e+00	3.4632152439e-01
1.0525757914e+01	1.8977242835e-01
1.3251144117e+01	1.0353181226e-01
1.6682202064e+01	5.6250611237e-02
2.1001648103e+01	3.0443531722e-02
2.6439508486e+01	1.6415468393e-02
3.3285369109e+01	8.8192486725e-03
4.1903797012e+01	4.7207973957e-03
5.2753754909e+01	2.5171389854e-03
