1.0514975513e-05	5.2946305348e-01
1.3237569878e-05	5.2946304779e-01
1.6665113110e-05	5.2946303879e-01
2.0980134385e-05	5.2946302453e-01
2.6412424320e-05	5.2946300192e-01
3.3251272163e-05	5.2946296609e-01
4.1860871500e-05	5.2946290930e-01
5.2699714892e-05	5.2946281931e-01
6.6345010272e-05	5.2946267671e-01
8.3523419377e-05	5.2946245074e-01
1.0514975513e-04	5.2946209273e-01
1.3237569878e-04	5.2946152564e-01
1.6665113110e-04	5.2946062763e-01
2.0980134385e-04	5.2945920635e-01
2.6412424320e-04	5.2945695866e-01
3.3251272163e-04	5.2945340858e-01
4.1860871500e-04	5.2944781275e-01
5.2699714892e-04	5.2943902043e-01
6.6345010272e-04	5.2942527534e-01
8.3523419377e-04	5.2940395869e-01
1.0514975513e-03	5.2937131448e-01
1.3237569878e-03	5.2932230758e-01
1.6665113110e-03	5.2925099096e-01
2.0980134385e-03	5.2915207672e-01
2.6412424320e-03	5.2902438565e-01
3.3251272163e-03	5.2887485652e-01
4.1860871500e-03	5.2871565804e-01
5.2699714892e-03	5.2854390876e-01
6.6345010272e-03	5.2832729966e-01
8.3523419377e-03	5.2805642169e-01
1.0514975513e-02	5.2775479922e-01
1.3237569878e-02	5.2743422924e-01
1.6665113110e-02	5.2709464478e-01
2.0980134210e-02	5.2673579547e-01
2.6412293110e-02	5.2636875588e-01
3.3233264743e-02	5.2601717724e-01
4.1266180662e-02	5.2576105112e-01
4.8028547936e-02	5.2568013397e-01
5.2934639182e-02	5.2568129473e-01
5.6982025926e-02	5.2570273458e-01
6.0596522900e-02	5.2572623270e-01
6.3968059933e-02	5.2574382006e-01
6.7197207939e-02	5.2575220440e-01
7.0344288550e-02	5.2574940979e-01
7.3448934014e-02	5.2573493775e-01
7.6539080837e-02	5.2570909165e-01
7.9635574864e-02	5.2567281317e-01
8.2754730759e-02	5.2562811008e-01
8.5909848867e-02	5.2557750562e-01
8.9112161591e-02	5.2552459795e-01
9.2371449104e-02	5.2547353684e-01
9.5696453998e-02	5.2542893344e-01
9.9095168601e-02	5.2539538720e-01
1.0257503881e-01	5.2537658394e-01
1.0614311144e-01	5.2537475518e-01
1.0980614238e-01	5.2538968667e-01
1.1357067682e-01	5.2541869360e-01
1.1744310923e-01	5.2545654954e-01
1.2142972838e-01	5.2549651028e-01
1.2553675117e-01	5.2553119864e-01
1.2977034805e-01	5.2555399420e-01
1.3413666224e-01	5.2555997836e-01
1.3864182421e-01	5.2554688403e-01
1.4329196312e-01	5.2551575326e-01
1.4809321603e-01	5.2547127944e-01
1.5305173634e-01	5.2542177948e-01
1.5817370209e-01	5.2537805455e-01
1.6346532534e-01	5.2535092551e-01
1.6893286330e-01	5.2534765873e-01
1.7458263227e-01	5.2536856397e-01
1.8042102516e-01	5.2540590580e-01
1.8645453350e-01	5.2544634662e-01
1.9268977475e-01	5.2547539037e-01
1.9913352582e-01	5.2548250855e-01
2.0579276362e-01	5.2546510159e-01
2.1267471365e-01	5.2542979541e-01
2.1978690740e-01	5.2539095008e-01
2.2713724986e-01	5.2536539224e-01
2.3473409819e-01	5.2536416673e-01
2.4258635298e-01	5.2538563256e-01
2.5070356400e-01	5.2541563902e-01
2.5909605234e-01	5.2543582150e-01
2.6777505193e-01	5.2543454506e-01
2.7675287371e-01	5.2541387041e-01
2.8604309711e-01	5.2538849909e-01
2.9566079448e-01	5.2537612943e-01
3.0562279620e-01	5.2538380892e-01
3.1594800629e-01	5.2540191941e-01
3.2665778151e-01	5.2541299328e-01
3.3777639144e-01	5.2540764473e-01
3.4933158244e-01	5.2539275799e-01
3.6135527700e-01	5.2538408135e-01
3.7388445100e-01	5.2538900455e-01
3.8696224823e-01	5.2539839914e-01
4.0063941518e-01	5.2539919808e-01
4.1497617484e-01	5.2539162124e-01
4.3004471221e-01	5.2538732906e-01
4.4593252756e-01	5.2539094511e-01
4.6274704664e-01	5.2539376232e-01
4.8062209292e-01	5.2539040231e-01
4.9972719160e-01	5.2538820408e-01
5.2028130807e-01	5.2539023311e-01
5.4257376827e-01	5.2538957238e-01
5.6699726957e-01	5.2538808488e-01
5.9410217535e-01	5.2538875761e-01
6.2469027440e-01	5.2538778828e-01
6.5998626343e-01	5.2538776839e-01
7.0197326156e-01	5.2538720182e-01
7.5410168437e-01	5.2538692119e-01
8.2290765371e-01	5.2538655569e-01
9.2183655868e-01	5.2538617153e-01
1.0783178084e+00	5.2538577356e-01
1.3273224387e+00	5.2538541521e-01
1.6682613746e+00	5.2538518176e-01
2.1001649620e+00	5.2538504716e-01
2.6439508487e+00	5.2538496707e-01
3.3285369109e+00	5.2538491722e-01
4.1903797012e+00	5.2538487665e-01
5.2753754909e+00	5.2538482640e-01
6.6413042623e+00	5.2538474835e-01
8.3609067032e+00	5.2538461824e-01
1.0525757914e+01	5.2538440138e-01
1.3251144117e+01	5.2538404502e-01
1.6682202064e+01	5.2538346682e-01
2.1001648103e+01	5.2538253704e-01
2.6439508486e+01	5.2538105089e-01
3.3285369109e+01	5.2537868436e-01
4.1903797012e+01	5.2537492549e-01
5.2753754909e+01	5.2536896621e-01
