1.0514975513e-05	5.2946305353e-01
1.3237569878e-05	5.2946304788e-01
1.6665113110e-05	5.2946303892e-01
2.0980134385e-05	5.2946302473e-01
2.6412424320e-05	5.2946300225e-01
3.3251272163e-05	5.2946296661e-01
4.1860871500e-05	5.2946291012e-01
5.2699714892e-05	5.2946282061e-01
6.6345010272e-05	5.2946267877e-01
8.3523419377e-05	5.2946245401e-01
1.0514975513e-04	5.2946209792e-01
1.3237569878e-04	5.2946153386e-01
1.6665113110e-04	5.2946064066e-01
2.0980134385e-04	5.2945922700e-01
2.6412424320e-04	5.2945699139e-01
3.3251272163e-04	5.2945346046e-01
4.1860871500e-04	5.2944789499e-01
5.2699714892e-04	5.2943915081e-01
6.6345010272e-04	5.2942548206e-01
8.3523419377e-04	5.2940428653e-01
1.0514975513e-03	5.2937183457e-01
1.3237569878e-03	5.2932313312e-01
1.6665113110e-03	5.2925230520e-01
2.0980134385e-03	5.2915416864e-01
2.6412424320e-03	5.2902771850e-01
3.3251272163e-03	5.2888017520e-01
4.1860871500e-03	5.2872416240e-01
5.2699714892e-03	5.2855753322e-01
6.6345010272e-03	5.2834916795e-01
8.3523419377e-03	5.2809157300e-01
1.0514975513e-02	5.2781129320e-01
1.3237569878e-02	5.2752475813e-01
1.6665113110e-02	5.2723860591e-01
2.0980134210e-02	5.2696068680e-01
2.6412293110e-02	5.2670703082e-01
3.3233264743e-02	5.2648677020e-01
4.1266180662e-02	5.2631232462e-01
4.8028547936e-02	5.2621001445e-01
5.2934639182e-02	5.2615282704e-01
5.6982025926e-02	5.2611346352e-01
6.0596522900e-02	5.2608343838e-01
6.3968059933e-02	5.2605872365e-01
6.7197207939e-02	5.2603784470e-01
7.0344288550e-02	5.2601956923e-01
7.3448934014e-02	5.2600336467e-01
7.6539080837e-02	5.2598883880e-01
7.9635574864e-02	5.2597557929e-01
8.2754730759e-02	5.2596351879e-01
8.5909848867e-02	5.2595234831e-01
8.9112161591e-02	5.2594204817e-01
9.2371449104e-02	5.2593247303e-01
9.5696453998e-02	5.2592353922e-01
9.9095168601e-02	5.2591521979e-01
1.0257503881e-01	5.2590739723e-01
1.0614311144e-01	5.2590009491e-01
1.0980614238e-01	5.2589320192e-01
1.1357067682e-01	5.2588675126e-01
1.1744310923e-01	5.2588065077e-01
1.2142972838e-01	5.2587492884e-01
1.2553675117e-01	5.2586951505e-01
1.2977034805e-01	5.2586442310e-01
1.3413666224e-01	5.2585961452e-01
1.3864182421e-01	5.2585507363e-01
1.4329196312e-01	5.2585080098e-01
1.4809321603e-01	5.2584675555e-01
1.5305173634e-01	5.2584294371e-01
1.5817370209e-01	5.2583935285e-01
1.6346532534e-01	5.2583595815e-01
1.6893286330e-01	5.2583275799e-01
1.7458263227e-01	5.2582974705e-01
1.8042102516e-01	5.2582690631e-01
1.8645453350e-01	5.2582422719e-01
1.9268977475e-01	5.2582170219e-01
1.9913352582e-01	5.2581932398e-01
2.0579276362e-01	5.2581708543e-01
2.1267471365e-01	5.2581497791e-01
2.1978690740e-01	5.2581299401e-01
2.2713724986e-01	5.2581112732e-01
2.3473409819e-01	5.2580937157e-01
2.4258635298e-01	5.2580772036e-01
2.5070356400e-01	5.2580616728e-01
2.5909605234e-01	5.2580470641e-01
2.6777505193e-01	5.2580333261e-01
2.7675287371e-01	5.2580204067e-01
2.8604309711e-01	5.2580082438e-01
2.9566079448e-01	5.2579968034e-01
3.0562279620e-01	5.2579860530e-01
3.1594800629e-01	5.2579759383e-01
3.2665778151e-01	5.2579664059e-01
3.3777639144e-01	5.2579574356e-01
3.4933158244e-01	5.2579489708e-01
3.6135527700e-01	5.2579410006e-01
3.7388445100e-01	5.2579334848e-01
3.8696224823e-01	5.2579263865e-01
4.0063941518e-01	5.2579196778e-01
4.1497617484e-01	5.2579133328e-01
4.3004471221e-01	5.2579073257e-01
4.4593252756e-01	5.2579016307e-01
4.6274704664e-01	5.2578962233e-01
4.8062209292e-01	5.2578910729e-01
4.9972719160e-01	5.2578861605e-01
5.2028130807e-01	5.2578814609e-01
5.4257376827e-01	5.2578769486e-01
5.6699726957e-01	5.2578725970e-01
5.9410217535e-01	5.2578683752e-01
6.2469027440e-01	5.2578642494e-01
6.5998626343e-01	5.2578601784e-01
7.0197326156e-01	5.2578561064e-01
7.5410168437e-01	5.2578519604e-01
8.2290765371e-01	5.2578476408e-01
9.2183655868e-01	5.2578430351e-01
1.0783178084e+00	5.2578381633e-01
1.3273224387e+00	5.2578336051e-01
1.6682613746e+00	5.2578304091e-01
2.1001649620e+00	5.2578283948e-01
2.6439508487e+00	5.2578270953e-01
3.3285369109e+00	5.2578262803e-01
4.1903797012e+00	5.2578257713e-01
5.2753754909e+00	5.2578254451e-01
6.6413042623e+00	5.2578252399e-01
8.3609067032e+00	5.2578251100e-01
1.0525757914e+01	5.2578250275e-01
1.3251144117e+01	5.2578249744e-01
1.6682202064e+01	5.2578249395e-01
2.1001648103e+01	5.2578249149e-01
2.6439508486e+01	5.2578248956e-01
3.3285369109e+01	5.2578248775e-01
4.1903797012e+01	5.2578248565e-01
5.2753754909e+01	5.2578248283e-01
