1.0514975513e-05	5.2790177243e-01
1.3237569878e-05	5.2790220381e-01
1.6665113110e-05	5.2790288724e-01
2.0980134385e-05	5.2790397033e-01
2.6412424320e-05	5.2790568692e-01
3.3251272163e-05	5.2790840738e-01
4.1860871500e-05	5.2791271885e-01
5.2699714892e-05	5.2791955164e-01
6.6345010272e-05	5.2793037982e-01
8.3523419377e-05	5.2794753856e-01
1.0514975513e-04	5.2797472657e-01
1.3237569878e-04	5.2801779954e-01
1.6665113110e-04	5.2808602256e-01
2.0980134385e-04	5.2819404078e-01
2.6412424320e-04	5.2836496696e-01
3.3251272163e-04	5.2863518613e-01
4.1860871500e-04	5.2906174724e-01
5.2699714892e-04	5.2973352092e-01
6.6345010272e-04	5.3078749493e-01
8.3523419377e-04	5.3243116393e-01
1.0514975513e-03	5.3496960310e-01
1.3237569878e-03	5.3882824486e-01
1.6665113110e-03	5.4454274990e-01
2.0980134385e-03	5.5264992622e-01
2.6412424320e-03	5.6336765290e-01
3.3251272163e-03	5.7606904466e-01
4.1860871500e-03	5.8925953973e-01
5.2699714892e-03	6.0278615779e-01
6.6345010272e-03	6.2071395067e-01
8.3523419377e-03	6.4564886733e-01
1.0514975513e-02	6.7544106696e-01
1.3237569878e-02	7.0869392445e-01
1.6665113110e-02	7.4616579553e-01
2.0980134210e-02	7.8985222139e-01
2.6412293110e-02	8.3809797473e-01
3.3233264743e-02	8.8984266290e-01
4.1266180662e-02	9.4258080275e-01
4.8028547936e-02	9.8108889117e-01
5.2934639182e-02	1.0061597453e+00
5.6982025926e-02	1.0264208285e+00
6.0596522900e-02	1.0422231471e+00
6.3968059933e-02	1.0574335668e+00
6.7197207939e-02	1.0703004807e+00
7.0344288550e-02	1.0830451757e+00
7.3448934014e-02	1.0949880164e+00
7.6539080837e-02	1.1057794773e+00
7.9635574864e-02	1.1171867933e+00
8.2754730759e-02	1.1269626972e+00
8.5909848867e-02	1.1377066845e+00
8.9112161591e-02	1.1474689588e+00
9.2371449104e-02	1.1571889985e+00
9.5696453998e-02	1.1670583755e+00
9.9095168601e-02	1.1759086312e+00
1.0257503881e-01	1.1857678938e+00
1.0614311144e-01	1.1941444139e+00
1.0980614238e-01	1.2038796324e+00
1.1357067682e-01	1.2119698422e+00
1.1744310923e-01	1.2215080489e+00
1.2142972838e-01	1.2294239879e+00
1.2553675117e-01	1.2386213683e+00
1.2977034805e-01	1.2467037759e+00
1.3413666224e-01	1.2550929265e+00
1.3864182421e-01	1.2637830161e+00
1.4329196312e-01	1.2709776556e+00
1.4809321603e-01	1.2797104821e+00
1.5305173634e-01	1.2876814949e+00
1.5817370209e-01	1.2946747699e+00
1.6346532534e-01	1.3029189814e+00
1.6893286330e-01	1.3109798326e+00
1.7458263227e-01	1.3175706601e+00
1.8042102516e-01	1.3246190552e+00
1.8645453350e-01	1.3320885575e+00
1.9268977475e-01	1.3396466054e+00
1.9913352582e-01	1.3468885997e+00
2.0579276362e-01	1.3533975804e+00
2.1267471365e-01	1.3596031140e+00
2.1978690740e-01	1.3658185091e+00
2.2713724986e-01	1.3720465838e+00
2.3473409819e-01	1.3782435214e+00
2.4258635298e-01	1.3844236317e+00
2.5070356400e-01	1.3905950336e+00
2.5909605234e-01	1.3965579641e+00
2.6777505193e-01	1.4016425964e+00
2.7675287371e-01	1.4057714038e+00
2.8604309711e-01	1.4112694841e+00
2.9566079448e-01	1.4172829827e+00
3.0562279620e-01	1.4217271302e+00
3.1594800629e-01	1.4257868859e+00
3.2665778151e-01	1.4315693442e+00
3.3777639144e-01	1.4342555461e+00
3.4933158244e-01	1.4402752306e+00
3.6135527700e-01	1.4438247017e+00
3.7388445100e-01	1.4473889176e+00
3.8696224823e-01	1.4524379637e+00
4.0063941518e-01	1.4571878831e+00
4.1497617484e-01	1.4609287241e+00
4.3004471221e-01	1.4646508010e+00
4.4593252756e-01	1.4683088578e+00
4.6274704664e-01	1.4695543704e+00
4.8062209292e-01	1.4733335444e+00
4.9972719160e-01	1.4764858318e+00
5.2028130807e-01	1.4808286088e+00
5.4257376827e-01	1.4835936829e+00
5.6699726957e-01	1.4856624805e+00
5.9410217535e-01	1.4902939985e+00
6.2469027440e-01	1.4940553475e+00
6.5998626343e-01	1.4952884700e+00
7.0197326156e-01	1.4968767920e+00
7.5410168437e-01	1.4993136456e+00
8.2290765371e-01	1.5027958475e+00
9.2183655868e-01	1.5104535903e+00
1.0783178084e+00	1.5160871067e+00
1.3273224387e+00	1.5178661535e+00
1.6682613746e+00	1.5200072833e+00
2.1001649620e+00	1.5202568062e+00
2.6439508487e+00	1.5231151799e+00
3.3285369109e+00	1.5302050205e+00
4.1903797012e+00	1.5181848725e+00
5.2753754909e+00	1.4804295266e+00
6.6413042623e+00	1.5112100461e+00
8.3609067032e+00	1.5234059822e+00
1.0525757914e+01	1.5119800050e+00
1.3251144117e+01	1.5895748636e+00
1.6682202064e+01	1.6405392914e+00
2.1001648103e+01	1.7239310014e+00
2.6439508486e+01	1.5688744297e+00
3.3285369109e+01	1.9825844267e+00
4.1903797012e+01	1.4064223168e+00
5.2753754909e+01	1.4314670032e+00
